[{
  "_id": {
    "$oid": "664ee7b87ee464e07152121f"
  },
  "adress": {
    "street": "rietpark",
    "number": 24,
    "postal_code": 8606,
    "city": "greifensee"
  },
  "birthdate": {
    "$date": "2024-08-23T00:00:00.000Z"
  },
  "age": 3983
}]